<svg xmlns="http://www.w3.org/2000/svg" viewBox="56 56 144 144" stroke="#fff" fill="#fff">
<circle cx="128" cy="128" r="64" stroke="none" fill="#231F20"></circle>
<circle cx="128" cy="128" stroke-width="0" fill="none" r="64"></circle>
<path d="M160,128l-48,27.7128v-55.4256z" stroke-width="8" stroke-linejoin="round"></path>
</svg>
